…
library(naniar)# cargar para la función replace_with_na. El paquete naniar aporta utilizades para tartar NA
# ver un manual en https://cran.r-project.org/web/packages/naniar/vignettes/getting-started-w-naniar.html
data_CO2$CO2_kt_RAW_DATA %>% gather(`1960`:`2015`, key="Year", value="CO2") %>%
  naniar::replace_with_na(replace =list(CO2 ="null")) %>%
  mutate(Year=as.integer(Year),CO2=as.numeric(CO2)) %>%
  arrange(Country_Code) -> aux
# nota cambiar gather (función retirada) por pivot_longer EJERCICIO

print(aux,n=10,width=Inf)
```

```
## # A tibble: 13,888 x 6
##    Country_Name Country_Code Indicator_Name     Indicator_Code  Year   CO2
##    <chr>        <chr>        <chr>              <chr>          <int> <dbl>
##  1 Aruba        ABW          CO2 emissions (kt) EN.ATM.CO2E.KT  1960    NA
##  2 Aruba        ABW          CO2 emissions (kt) EN.ATM.CO2E.KT  1961    NA
##  3 Aruba        ABW          CO2 emissions (kt) EN.ATM.CO2E.KT  1962    NA
##  4 Aruba        ABW          CO2 emissions (kt) EN.ATM.CO2E.KT  1963    NA
##  5 Aruba        ABW          CO2 emissions (kt) EN.ATM.CO2E.KT  1964    NA
##  6 Aruba        ABW          CO2 emissions (kt) EN.ATM.CO2E.KT  1965    NA
##  7 Aruba        ABW          CO2 emissions (kt) EN.ATM.CO2E.KT  1966    NA
##  8 Aruba        ABW          CO2 emissions (kt) EN.ATM.CO2E.KT  1967    NA
##  9 Aruba        ABW          CO2 emissions (kt) EN.ATM.CO2E.KT  1968    NA
## 10 Aruba        ABW          CO2 emissions (kt) EN.ATM.CO2E.KT  1969    NA
## # … with 13,878 more rows
```
…
```r
dimnames(year_country)[[2]][indice[2]]
```

```
## [1] "SMR"
```


```r
data_CO2$CO2_kt_Pivoted[data_CO2$CO2_kt_Pivoted$Country_Code=="SMR",]# mejor usar filter
```

```
## # A tibble: 51 x 5
##    Country_Name Country_Code Region                 Year CO2_kt
##    <chr>        <chr>        <chr>                 <dbl>  <dbl>
##  1 San Marino   SMR          Europe & Central Asia  1961     NA
##  2 San Marino   SMR          Europe & Central Asia  1962     NA
##  3 San Marino   SMR          Europe & Central Asia  1963     NA
##  4 San Marino   SMR          Europe & Central Asia  1964     NA
##  5 San Marino   SMR          Europe & Central Asia  1965     NA
##  6 San Marino   SMR          Europe & Central Asia  1966     NA
##  7 San Marino   SMR          Europe & Central Asia  1967     NA
##  8 San Marino   SMR          Europe & Central Asia  1968     NA
##  9 San Marino   SMR          Europe & Central Asia  1969     NA
## 10 San Marino   SMR          Europe & Central Asia  1970     NA
## # … with 41 more rows
```
…
```r
print(aux2,whihd=Inf)
```

```
## # A tibble: 11,075 x 9
##    Country_Name Country_Code Indicator_Name Indicator_Code  Year   CO2 Region
##    <chr>        <chr>        <chr>          <chr>          <dbl> <dbl> <chr> 
##  1 Aruba        ABW          CO2 emissions… EN.ATM.CO2E.KT  1960    NA Latin…
##  2 Aruba        ABW          CO2 emissions… EN.ATM.CO2E.KT  1961    NA Latin…
##  3 Aruba        ABW          CO2 emissions… EN.ATM.CO2E.KT  1962    NA Latin…
##  4 Aruba        ABW          CO2 emissions… EN.ATM.CO2E.KT  1963    NA Latin…
##  5 Aruba        ABW          CO2 emissions… EN.ATM.CO2E.KT  1964    NA Latin…
##  6 Aruba        ABW          CO2 emissions… EN.ATM.CO2E.KT  1965    NA Latin…
##  7 Aruba        ABW          CO2 emissions… EN.ATM.CO2E.KT  1966    NA Latin…
##  8 Aruba        ABW          CO2 emissions… EN.ATM.CO2E.KT  1967    NA Latin…
##  9 Aruba        ABW          CO2 emissions… EN.ATM.CO2E.KT  1968    NA Latin…
## 10 Aruba        ABW          CO2 emissions… EN.ATM.CO2E.KT  1969    NA Latin…
## # … with 11,065 more rows, and 2 more variables: CO2_kt <dbl>, dif <dbl>
```
…
